# 	ISO Metric profile			External (bolt thread)					Internal (nut thread)					Basic mm
#							Major Dia d=D	Pitch Dia d2=D2	Minor Dia d3		Minor Dia D1	Pitch Dia d2=D2	Major Dia d=D	
#Size	Designation	Simple Desig.	Pitch	Class	max	min	max	min	max	min	Class	min	max	min	max	min	max	Tap Drill
40	M40x2		M40x2		2	6g	39.96	39.68	38.66	38.49	37.797	37.261	6H	37.835	38.21	38.701	38.925	40	40.513	38
